%YAML 1.1
%TAG !u! tag:unity3d.com,2011:
--- !u!1001 &100100000
Prefab:
  m_ObjectHideFlags: 1
  serializedVersion: 2
  m_Modification:
    m_TransformParent: {fileID: 0}
    m_Modifications: []
    m_RemovedComponents: []
  m_ParentPrefab: {fileID: 0}
  m_RootGameObject: {fileID: 1864631464103366}
  m_IsPrefabParent: 1
--- !u!1 &1864631464103366
GameObject:
  m_ObjectHideFlags: 0
  m_PrefabParentObject: {fileID: 0}
  m_PrefabInternal: {fileID: 100100000}
  serializedVersion: 5
  m_Component:
  - component: {fileID: 4966794634885356}
  - component: {fileID: 114737846931507856}
  m_Layer: 0
  m_Name: MazeSpawner
  m_TagString: Untagged
  m_Icon: {fileID: 0}
  m_NavMeshLayer: 0
  m_StaticEditorFlags: 0
  m_IsActive: 1
--- !u!4 &4966794634885356
Transform:
  m_ObjectHideFlags: 1
  m_PrefabParentObject: {fileID: 0}
  m_PrefabInternal: {fileID: 100100000}
  m_GameObject: {fileID: 1864631464103366}
  m_LocalRotation: {x: 0, y: 0, z: 0, w: 1}
  m_LocalPosition: {x: 0, y: 0, z: 0}
  m_LocalScale: {x: 1, y: 1, z: 1}
  m_Children: []
  m_Father: {fileID: 0}
  m_RootOrder: 0
  m_LocalEulerAnglesHint: {x: 0, y: 0, z: 0}
--- !u!114 &114737846931507856
MonoBehaviour:
  m_ObjectHideFlags: 1
  m_PrefabParentObject: {fileID: 0}
  m_PrefabInternal: {fileID: 100100000}
  m_GameObject: {fileID: 1864631464103366}
  m_Enabled: 1
  m_EditorHideFlags: 0
  m_Script: {fileID: 11500000, guid: 4dbd480039f60a344bdc0ff90b9d70b5, type: 3}
  m_Name: 
  m_EditorClassIdentifier: 
  Algorithm: 1
  FullRandom: 1
  RandomSeed: 3
  Floor: {fileID: 165842, guid: 8d3b36f175a633f429d7bda54c76550d, type: 2}
  Wall: {fileID: 144206, guid: 9de82ec743bb24449a99f5cf1e325d61, type: 2}
  Pillar: {fileID: 142476, guid: f3f97a2401feba4479a301d6181e9da6, type: 2}
  Rows: 10
  Columns: 10
  CellWidth: 4
  CellHeight: 4
  AddGaps: 0
  GoalPrefab: {fileID: 159624, guid: 850205124263c924ea0aa82f0fdf2673, type: 2}
